<?xml version="1.0" encoding="UTF-8"?>
<symbol version="7" name="p1ram">
    <symboltype>BLOCK</symboltype>
    <timestamp>2024-8-12T20:48:20</timestamp>
    <attr value="p1ram" name="VeriModel" />
    <pin polarity="Input" x="0" y="-224" name="Clk" />
    <pin polarity="Input" x="0" y="-160" name="CE_n" />
    <pin polarity="Input" x="0" y="-96" name="WE_n" />
    <pin polarity="Input" x="0" y="-32" name="A(15:0)" />
    <pin polarity="BiDirectional" x="384" y="-224" name="D(7:0)" />
    <graph>
        <attrtext style="alignment:BCENTER;fontsize:56;fontname:Arial" attrname="SymbolName" x="192" y="-264" type="symbol" />
        <attrtext style="fontsize:24;fontname:Arial" attrname="PinName" x="72" y="-224" type="pin Clk" />
        <attrtext style="fontsize:24;fontname:Arial" attrname="PinName" x="72" y="-160" type="pin CE_n" />
        <attrtext style="fontsize:24;fontname:Arial" attrname="PinName" x="72" y="-96" type="pin WE_n" />
        <attrtext style="fontsize:24;fontname:Arial" attrname="PinName" x="72" y="-32" type="pin A(15:0)" />
        <attrtext style="alignment:RIGHT;fontsize:24;fontname:Arial" attrname="PinName" x="312" y="-224" type="pin D(7:0)" />
        <rect width="256" x="64" y="-256" height="256" />
        <line x2="0" y1="-224" y2="-224" x1="64" />
        <line x2="0" y1="-160" y2="-160" x1="64" />
        <line x2="0" y1="-96" y2="-96" x1="64" />
        <rect width="64" x="0" y="-44" height="24" />
        <line x2="0" y1="-32" y2="-32" x1="64" />
        <rect width="64" x="320" y="-236" height="24" />
        <line x2="384" y1="-224" y2="-224" x1="320" />
    </graph>
</symbol>
